Logic Design with Verilog/lab7/part1/ycbcr/iverilog.log
testbench.cg with cycle_time_p          10
VCD info: dumpfile iverilog.vcd opened for output.
VCD warning: $dumpvars: Unsupported argument type (vpiPackage)

  ______          __  __                    __       ____  _       __  ___          
 /_  __/__  _____/ /_/ /_  ___  ____  _____/ /_     / __ )(_)___ _/  |/  /___ ______
  / / / _ \/ ___/ __/ __ \/ _ \/ __ \/ ___/ __ \   / __  / / __ `/ /|_/ / __ `/ ___/
 / / /  __(__  ) /_/ /_/ /  __/ / / / /__/ / / /  / /_/ / / /_/ / /  / / /_/ / /__  
/_/  \___/____/\__/_.___/\___/_/ /_/\___/_/ /_/  /_____/_/\__, /_/  /_/\__,_/\___/  
                                                         /____/                     
WARNING: testbench.sv:119: $readmemh: Standard inconsistency, following 1364-2005.
WARNING: testbench.sv:119: $readmemh(ycbcr.hex): Not enough words in the file for the requested range [0:255].
Sample          0 --  Rr: 201.462000, R: 201     Gr: 130.700800, G: 131     Br: 184.580000, B: 185
Sample          1 --  Rr: 7.398000, R:   7     Gr: 237.986960, G: 238     Br: 62.172000, B:  62
Sample          2 --  Rr: 165.482000, R: 165     Gr: 56.352800, G:  56     Br: 223.180000, B: 223
Sample          3 --  Rr: 234.522000, R: 235     Gr: 114.387540, G: 114     Br: 102.928000, B: 103
Sample          4 --  Rr: 88.126000, R:  88     Gr: 158.162340, G: 158     Br: 182.528000, B: 183
Sample          5 --  Rr: 171.512000, R: 172     Gr: 46.127600, G:  46     Br: 128.440000, B: 128
Sample          6 --  Rr: 90.694000, R:  91     Gr: 208.697680, G: 209     Br: 134.876000, B: 135
Sample          7 --  Rr: 186.748000, R: 187     Gr: 17.423420, G:  17     Br: 148.564000, B: 149
Sample          8 --  Rr: 88.980000, R:  89     Gr: 111.173420, G: 111     Br: 97.684000, B:  98
Sample          9 --  Rr: 109.432000, R: 109     Gr: 78.327520, G:  78     Br: 72.824000, B:  73
Sample         10 --  Rr: 149.960000, R: 150     Gr: 185.399200, G: 185     Br: 213.440000, B: 213
Sample         11 --  Rr: 140.342000, R: 140     Gr: 206.182720, G: 206     Br: 157.964000, B: 158
Sample         12 --  Rr: 199.668000, R: 200     Gr: 147.680720, G: 148     Br: 49.224000, B:  49
Sample         13 --  Rr: 14.026000, R:  14     Gr: 202.944660, G: 203     Br: 111.192000, B: 111
Sample         14 --  Rr: 193.442000, R: 193     Gr: 180.320640, G: 180     Br: 2.748000, B:   3
Sample         15 --  Rr: 121.704000, R: 122     Gr: 228.438900, G: 228     Br: 162.420000, B: 162
Sample         16 --  Rr: 121.100000, R: 121     Gr: 25.619200, G:  26     Br: -2.160000, B: 254
Sample         17 --  Rr: 76.850000, R:  77     Gr: 236.589920, G: 237     Br: 176.684000, B: 177
Sample         18 --  Rr: 173.744000, R: 174     Gr: 237.468620, G: 237     Br: 189.964000, B: 190
Sample         19 --  Rr: 155.116000, R: 155     Gr: 254.316400, G: 254     Br: 160.840000, B: 161
Sample         20 --  Rr: 3.378000, R:   3     Gr: 226.220200, G: 226     Br: 221.020000, B: 221
Sample         21 --  Rr: 165.362000, R: 165     Gr: 208.321020, G: 208     Br: 177.824000, B: 178
Sample         22 --  Rr: 52.020000, R:  52     Gr: 11.587160, G:  12     Br: 137.232000, B: 137
Sample         23 --  Rr: 87.030000, R:  87     Gr: 63.547860, G:  64     Br: 23.472000, B:  23
Sample         24 --  Rr: 152.276000, R: 152     Gr: 64.293120, G:  64     Br: 137.984000, B: 138
Sample         25 --  Rr: 243.432000, R: 243     Gr: 217.489620, G: 217     Br: 180.244000, B: 180
Sample         26 --  Rr: 72.272000, R:  72     Gr: 205.981700, G: 206     Br: 170.860000, B: 171
Sample         27 --  Rr: 200.070000, R: 200     Gr: 118.435420, G: 118     Br: 189.984000, B: 190
Sample         28 --  Rr: 222.824000, R: 223     Gr: 222.897160, G: 223     Br: 74.872000, B:  75
Sample         29 --  Rr: 210.934000, R: 211     Gr: 77.414660, G:  77     Br: 74.472000, B:  74
Sample         30 --  Rr: 159.658000, R: 160     Gr: 121.004340, G: 121     Br: 2.048000, B:   2
Sample         31 --  Rr: 75.422000, R:  75     Gr: 56.962860, G:  57     Br: 35.192000, B:  35
Sample         32 --  Rr: 80.040000, R:  80     Gr: 28.426220, G:  28     Br: 99.844000, B: 100
Sample         33 --  Rr: 214.186000, R: 214     Gr: 231.751820, G: 232     Br: 209.824000, B: 210
Sample         34 --  Rr: 164.648000, R: 165     Gr: 112.829180, G: 113     Br: 136.316000, B: 136
Sample         35 --  Rr: 3.654000, R:   4     Gr: 136.792620, G: 137     Br: 215.864000, B: 216
Sample         36 --  Rr: 151.734000, R: 152     Gr: 231.545360, G: 232     Br: 146.612000, B: 147
Sample         37 --  Rr: 38.548000, R:  39     Gr: 83.586540, G:  84     Br: 126.388000, B: 126
Sample         38 --  Rr: 244.346000, R: 244     Gr: 73.007840, G:  73     Br: 228.828000, B: 229
Sample         39 --  Rr: 196.668000, R: 197     Gr: 128.162000, G: 128     Br: 131.280000, B: 131
Sample         40 --  Rr: 222.422000, R: 222     Gr: 228.740940, G: 229     Br: 54.608000, B:  55
Sample         41 --  Rr: 82.186000, R:  82     Gr: 98.375260, G:  98     Br: 84.912000, B:  85
Sample         42 --  Rr: 94.558000, R:  95     Gr: 119.380120, G: 119     Br: 225.004000, B: 225
Sample         43 --  Rr: 60.442000, R:  60     Gr: 4.991420, G:   5     Br: 87.704000, B:  88
Sample         44 --  Rr: 110.890000, R: 111     Gr: 221.080980, G: 221     Br: 219.896000, B: 220
Sample         45 --  Rr: 175.854000, R: 176     Gr: 112.180640, G: 112     Br: 171.668000, B: 172
Sample         46 --  Rr: 210.658000, R: 211     Gr: 151.700080, G: 152     Br: 157.596000, B: 158
Sample         47 --  Rr: 165.950000, R: 166     Gr: 226.423580, G: 226     Br: 162.016000, B: 162
Sample         48 --  Rr: 215.658000, R: 216     Gr: 158.764920, G: 159     Br: 151.964000, B: 152
Sample         49 --  Rr: 218.648000, R: 219     Gr: 186.789300, G: 187     Br: 87.540000, B:  88
Sample         50 --  Rr: 198.708000, R: 199     Gr: 80.997200, G:  81     Br: 140.720000, B: 141
Sample         51 --  Rr: 19.548000, R:  20     Gr: 56.671320, G:  57     Br: 148.144000, B: 148
Sample         52 --  Rr: 7.176000, R:   7     Gr: 28.783660, G:  29     Br: 43.492000, B:  43
Sample         53 --  Rr: 53.156000, R:  53     Gr: 89.730140, G:  90     Br: 135.388000, B: 135
Sample         54 --  Rr: 49.412000, R:  49     Gr: 24.670500, G:  25     Br: 103.020000, B: 103
Sample         55 --  Rr: 105.276000, R: 105     Gr: 10.754460, G:  11     Br: 124.652000, B: 125
Sample         56 --  Rr: 217.532000, R: 218     Gr: 83.719780, G:  84     Br: 94.876000, B:  95
Sample         57 --  Rr: 108.462000, R: 108     Gr: 48.369140, G:  48     Br: 36.648000, B:  37
Sample         58 --  Rr: 210.688000, R: 211     Gr: 107.599540, G: 108     Br: 200.388000, B: 200
Sample         59 --  Rr: 116.176000, R: 116     Gr: 160.496900, G: 160     Br: 35.540000, B:  36
Sample         60 --  Rr: 186.768000, R: 187     Gr: 10.736300, G:  11     Br: 60.140000, B:  60
Sample         61 --  Rr: 80.256000, R:  80     Gr: 1.045080, G:   1     Br: 143.776000, B: 144
Sample         62 --  Rr: 92.010000, R:  92     Gr: 56.651420, G:  57     Br: 212.584000, B: 213
Sample         63 --  Rr: 153.894000, R: 154     Gr: 22.776420, G:  23     Br: 251.024000, B: 251
Sample         64 --  Rr: 72.222000, R:  72     Gr: 252.295540, G: 252     Br: 239.528000, B: 240
Sample         65 --  Rr: 220.402000, R: 220     Gr: 218.285900, G: 218     Br: 219.000000, B: 219
Sample         66 --  Rr: 15.252000, R:  15     Gr: 167.025440, G: 167     Br: 143.808000, B: 144
Sample         67 --  Rr: 202.924000, R: 203     Gr: 65.875420, G:  66     Br: 146.124000, B: 146
Sample         68 --  Rr: 54.940000, R:  55     Gr: 91.235940, G:  91     Br: 236.988000, B: 237
Sample         69 --  Rr: 188.598000, R: 189     Gr: 207.232820, G: 207     Br: 104.944000, B: 105
Sample         70 --  Rr: 91.392000, R:  91     Gr: 110.524740, G: 111     Br: 42.068000, B:  42
Sample         71 --  Rr: 90.488000, R:  90     Gr: 201.762660, G: 202     Br: 206.212000, B: 206
Sample         72 --  Rr: 13.860000, R:  14     Gr: 180.226420, G: 180     Br: 18.084000, B:  18
Sample         73 --  Rr: 69.478000, R:  69     Gr: 193.742140, G: 194     Br: 179.808000, B: 180
Sample         74 --  Rr: 27.026000, R:  27     Gr: 240.378600, G: 240     Br: -1.620000, B: 254
Sample         75 --  Rr: 68.654000, R:  69     Gr: 219.343760, G: 219     Br: 190.492000, B: 190
Sample         76 --  Rr: 236.386000, R: 236     Gr: 56.107420, G:  56     Br: 20.944000, B:  21
Sample         77 --  Rr: 183.934000, R: 184     Gr: 11.182700, G:  11     Br: 249.480000, B: 249
Sample         78 --  Rr: 177.864000, R: 178     Gr: 125.979240, G: 126     Br: 51.488000, B:  51
Sample         79 --  Rr: 73.890000, R:  74     Gr: 218.494980, G: 218     Br: 5.696000, B:   6
Sample         80 --  Rr: 10.388000, R:  10     Gr: 226.435240, G: 226     Br: 201.528000, B: 202
Sample         81 --  Rr: 3.332000, R:   3     Gr: 43.274380, G:  43     Br: 215.796000, B: 216
Sample         82 --  Rr: 80.814000, R:  81     Gr: 50.515000, G:  51     Br: 150.740000, B: 151
Sample         83 --  Rr: 194.598000, R: 195     Gr: 188.454740, G: 188     Br: 238.528000, B: 239
Sample         84 --  Rr: 37.448000, R:  37     Gr: 179.688040, G: 180     Br: 239.688000, B: 240
Sample         85 --  Rr: 89.030000, R:  89     Gr: 25.627620, G:  26     Br: 231.024000, B: 231
Sample         86 --  Rr: 88.854000, R:  89     Gr: 21.739240, G:  22     Br: 102.388000, B: 102
Sample         87 --  Rr: 13.046000, R:  13     Gr: 166.693920, G: 167     Br: 168.844000, B: 169
Sample         88 --  Rr: 180.462000, R: 180     Gr: 112.109780, G: 112     Br: 151.176000, B: 151
Sample         89 --  Rr: 224.894000, R: 225     Gr: 132.664240, G: 133     Br: 121.788000, B: 122
Sample         90 --  Rr: 15.026000, R:  15     Gr: 185.016960, G: 185     Br: 209.652000, B: 210
Sample         91 --  Rr: 27.126000, R:  27     Gr: 74.104960, G:  74     Br: 240.252000, B: 240
Sample         92 --  Rr: 165.558000, R: 166     Gr: 217.911320, G: 218     Br: 154.244000, B: 154
Sample         93 --  Rr: 194.668000, R: 195     Gr: 145.433840, G: 145     Br: 30.048000, B:  30
Sample         94 --  Rr: 220.512000, R: 221     Gr: 112.334600, G: 112     Br: 88.840000, B:  89
Sample         95 --  Rr: 0.498000, R:   0     Gr: 102.912860, G: 103     Br: 100.352000, B: 100
Sample         96 --  Rr: 158.904000, R: 159     Gr: 40.951580, G:  41     Br: 126.756000, B: 127
Sample         97 --  Rr: 219.552000, R: 220     Gr: 62.858080, G:  63     Br: 91.736000, B:  92
Sample         98 --  Rr: 250.994000, R: 251     Gr: 47.797140, G:  48     Br: 104.368000, B: 104
Sample         99 --  Rr: 240.356000, R: 240     Gr: 63.599440, G:  64     Br: 191.248000, B: 191
Sample        100 --  Rr: 93.236000, R:  93     Gr: 20.388060, G:  20     Br: 246.972000, B: 247
Sample        101 --  Rr: 242.386000, R: 242     Gr: 29.069980, G:  29     Br: 197.056000, B: 197
Sample        102 --  Rr: 195.472000, R: 195     Gr: 129.960740, G: 130     Br: 90.068000, B:  90
Sample        103 --  Rr: 58.106000, R:  58     Gr: 140.699840, G: 141     Br: 210.828000, B: 211
Sample        104 --  Rr: 253.246000, R: 253     Gr: 212.835060, G: 213     Br: 178.472000, B: 178
Sample        105 --  Rr: 160.824000, R: 161     Gr: 137.839780, G: 138     Br: 131.596000, B: 132
Sample        106 --  Rr: 141.030000, R: 141     Gr: 118.580280, G: 119     Br: 72.156000, B:  72
Sample        107 --  Rr: 53.272000, R:  53     Gr: 195.929340, G: 196     Br: 105.788000, B: 106
Sample        108 --  Rr: 19.116000, R:  19     Gr: 120.725380, G: 121     Br: 12.436000, B:  12
Sample        109 --  Rr: 3.644000, R:   4     Gr: 154.590060, G: 155     Br: 185.652000, B: 186
Sample        110 --  Rr: 205.366000, R: 205     Gr: 3.919200, G:   4     Br: 221.900000, B: 222
Sample        111 --  Rr: 152.904000, R: 153     Gr: 55.944120, G:  56     Br: 12.664000, B:  13
Sample        112 --  Rr: 140.784000, R: 141     Gr: 170.445980, G: 170     Br: 86.436000, B:  86
Sample        113 --  Rr: 28.438000, R:  28     Gr: 191.926880, G: 192     Br: 182.756000, B: 183
Sample        114 --  Rr: 87.794000, R:  88     Gr: 104.122360, G: 104     Br: 40.612000, B:  41
Sample        115 --  Rr: 122.884000, R: 123     Gr: 46.052700, G:  46     Br: 1.980000, B:   2
Sample        116 --  Rr: 226.884000, R: 227     Gr: 144.202320, G: 144     Br: 136.104000, B: 136
Sample        117 --  Rr: 162.548000, R: 163     Gr: 218.599020, G: 219     Br: 193.684000, B: 194
Sample        118 --  Rr: 91.518000, R:  92     Gr: 192.387840, G: 192     Br: 76.348000, B:  76
Sample        119 --  Rr: 163.884000, R: 164     Gr: 79.825760, G:  80     Br: 80.192000, B:  80
Sample        120 --  Rr: 167.110000, R: 167     Gr: 57.607300, G:  58     Br: 54.560000, B:  55
Sample        121 --  Rr: 164.176000, R: 164     Gr: 176.491880, G: 176     Br: 248.336000, B: 248
Sample        122 --  Rr: 181.658000, R: 182     Gr: 132.336000, G: 132     Br: 78.980000, B:  79
Sample        123 --  Rr: 38.568000, R:  39     Gr: 79.996680, G:  80     Br: 22.016000, B:  22
Sample        124 --  Rr: 35.664000, R:  36     Gr: 179.902940, G: 180     Br: 129.228000, B: 129
Sample        125 --  Rr: 115.352000, R: 115     Gr: 179.904000, G: 180     Br: 78.120000, B:  78
Sample        126 --  Rr: 50.478000, R:  50     Gr: 164.417940, G: 164     Br: 213.968000, B: 214
Sample        127 --  Rr: 81.764000, R:  82     Gr: 118.133100, G: 118     Br: 115.860000, B: 116
Sample        128 --  Rr: 60.332000, R:  60     Gr: 144.324300, G: 144     Br: 45.980000, B:  46
Sample        129 --  Rr: 60.216000, R:  60     Gr: 52.234840, G:  52     Br: 2.928000, B:   3
Sample        130 --  Rr: 82.664000, R:  83     Gr: 253.057580, G: 253     Br: 41.556000, B:  42
Sample        131 --  Rr: 2.664000, R:   3     Gr: 155.506440, G: 156     Br: 51.928000, B:  52
Sample        132 --  Rr: 30.794000, R:  31     Gr: 24.753260, G:  25     Br: 98.792000, B:  99
Sample        133 --  Rr: 208.236000, R: 208     Gr: 195.612560, G: 196     Br: 51.872000, B:  52
Sample        134 --  Rr: 13.282000, R:  13     Gr: 137.443620, G: 137     Br: 99.544000, B: 100
Sample        135 --  Rr: 134.332000, R: 134     Gr: 234.843020, G: 235     Br: 34.924000, B:  35
Sample        136 --  Rr: 206.944000, R: 207     Gr: 49.422700, G:  49     Br: 132.580000, B: 133
Sample        137 --  Rr: 171.090000, R: 171     Gr: 53.496400, G:  53     Br: 223.180000, B: 223
Sample        138 --  Rr: 72.744000, R:  73     Gr: 145.072120, G: 145     Br: 44.664000, B:  45
Sample        139 --  Rr: 244.934000, R: 245     Gr: 117.953320, G: 118     Br: 74.804000, B:  75
Sample        140 --  Rr: 1.654000, R:   2     Gr: 144.084400, G: 144     Br: 166.020000, B: 166
Sample        141 --  Rr: 71.262000, R:  71     Gr: 220.370160, G: 220     Br: 152.052000, B: 152
Sample        142 --  Rr: 69.498000, R:  69     Gr: 204.950300, G: 205     Br: -0.760000, B: 255
Sample        143 --  Rr: 40.900000, R:  41     Gr: 133.971820, G: 134     Br: 176.564000, B: 177
Sample        144 --  Rr: 63.176000, R:  63     Gr: 67.576660, G:  68     Br: 188.092000, B: 188
Sample        145 --  Rr: 252.452000, R: 252     Gr: 199.498240, G: 199     Br: 205.368000, B: 205
Sample        146 --  Rr: 81.608000, R:  82     Gr: 43.547560, G:  44     Br: 228.392000, B: 228
Sample        147 --  Rr: 97.302000, R:  97     Gr: 226.113120, G: 226     Br: 36.644000, B:  37
Sample        148 --  Rr: 176.578000, R: 177     Gr: 226.353880, G: 226     Br: 55.556000, B:  56
Sample        149 --  Rr: 112.648000, R: 113     Gr: 37.083520, G:  37     Br: 206.584000, B: 207
Sample        150 --  Rr: 110.668000, R: 111     Gr: 6.027300, G:   6     Br: 231.340000, B: 231
Sample        151 --  Rr: 242.954000, R: 243     Gr: 70.722520, G:  71     Br: 182.844000, B: 183
Sample        152 --  Rr: 187.130000, R: 187     Gr: 67.478780, G:  67     Br: 3.856000, B:   4
Sample        153 --  Rr: 33.644000, R:  34     Gr: 194.225980, G: 194     Br: 166.036000, B: 166
Sample        154 --  Rr: 248.406000, R: 248     Gr: 38.362920, G:  38     Br: 63.244000, B:  63
Sample        155 --  Rr: 240.150000, R: 240     Gr: 81.442500, G:  81     Br: 135.000000, B: 135
Sample        156 --  Rr: 151.266000, R: 151     Gr: 81.434700, G:  81     Br: 105.000000, B: 105
Sample        157 --  Rr: 150.658000, R: 151     Gr: 97.206320, G:  97     Br: 69.244000, B:  69
Sample        158 --  Rr: 21.694000, R:  22     Gr: 137.288700, G: 137     Br: 78.280000, B:  78
Sample        159 --  Rr: 140.462000, R: 140     Gr: 87.596080, G:  88     Br: 31.436000, B:  31
Sample        160 --  Rr: 73.920000, R:  74     Gr: 167.167500, G: 167     Br: 85.700000, B:  86
Sample        161 --  Rr: 34.548000, R:  35     Gr: 87.845900, G:  88     Br: 79.860000, B:  80
Sample        162 --  Rr: 85.272000, R:  85     Gr: 222.078960, G: 222     Br: 167.912000, B: 168
Sample        163 --  Rr: 9.594000, R:  10     Gr: 221.357780, G: 221     Br: 185.896000, B: 186
Sample        164 --  Rr: 121.694000, R: 122     Gr: 229.717620, G: 230     Br: 217.264000, B: 217
Sample        165 --  Rr: 7.820000, R:   8     Gr: 222.358800, G: 222     Br: 9.960000, B:  10
Sample        166 --  Rr: 0.634000, R:   1     Gr: 176.614440, G: 177     Br: 115.228000, B: 115
Sample        167 --  Rr: 202.904000, R: 203     Gr: 78.412920, G:  78     Br: 204.424000, B: 204
Sample        168 --  Rr: 34.634000, R:  35     Gr: 235.392520, G: 235     Br: 21.644000, B:  22
Sample        169 --  Rr: 73.242000, R:  73     Gr: 234.219380, G: 234     Br: 215.896000, B: 216
Sample        170 --  Rr: 210.376000, R: 210     Gr: 24.159200, G:  24     Br: 87.000000, B:  87
Sample        171 --  Rr: 34.558000, R:  35     Gr: 67.639480, G:  68     Br: 122.476000, B: 122
Sample        172 --  Rr: 222.678000, R: 223     Gr: 166.648880, G: 167     Br: 31.556000, B:  32
Sample        173 --  Rr: 65.030000, R:  65     Gr: 30.535380, G:  31     Br: 58.176000, B:  58
Sample        174 --  Rr: 199.462000, R: 199     Gr: 145.907800, G: 146     Br: 93.980000, B:  94
Sample        175 --  Rr: 247.984000, R: 248     Gr: 48.828980, G:  49     Br: 142.036000, B: 142
Sample        176 --  Rr: 182.422000, R: 182     Gr: 188.740940, G: 189     Br: 14.608000, B:  15
Sample        177 --  Rr: 100.568000, R: 101     Gr: 115.153760, G: 115     Br: 222.232000, B: 222
Sample        178 --  Rr: 144.864000, R: 145     Gr: 87.473000, G:  87     Br: 46.840000, B:  47
Sample        179 --  Rr: 25.388000, R:  25     Gr: 250.382880, G: 250     Br: 170.456000, B: 170
Sample        180 --  Rr: 230.030000, R: 230     Gr: 227.884540, G: 228     Br: 56.608000, B:  57
Sample        181 --  Rr: 131.910000, R: 132     Gr: 216.466160, G: 216     Br: 249.932000, B: 250
Sample        182 --  Rr: 221.276000, R: 221     Gr: 124.345480, G: 124     Br: 253.056000, B: 253
Sample        183 --  Rr: 52.734000, R:  53     Gr: 114.305940, G: 114     Br: 141.528000, B: 142
Sample        184 --  Rr: 36.136000, R:  36     Gr: 101.098080, G: 101     Br: 95.176000, B:  95
Sample        185 --  Rr: 2.352000, R:   2     Gr: 17.347840, G:  17     Br: 220.288000, B: 220
Sample        186 --  Rr: 56.588000, R:  57     Gr: 74.446700, G:  74     Br: 38.420000, B:  38
Sample        187 --  Rr: 75.452000, R:  75     Gr: 6.323660, G:   6     Br: 111.652000, B: 112
Sample        188 --  Rr: 97.578000, R:  98     Gr: 141.503500, G: 142     Br: 6.680000, B:   7
Sample        189 --  Rr: 54.844000, R:  55     Gr: 7.257380, G:   7     Br: 29.316000, B:  29
Sample        190 --  Rr: 124.136000, R: 124     Gr: 191.162920, G: 191     Br: 172.544000, B: 173
Sample        191 --  Rr: 62.136000, R:  62     Gr: 143.616800, G: 144     Br: 36.120000, B:  36
Sample        192 --  Rr: -0.914000, R: 255     Gr: 113.853320, G: 114     Br: 109.124000, B: 109
Sample        193 --  Rr: 171.970000, R: 172     Gr: 225.048180, G: 225     Br: 83.136000, B:  83
Sample        194 --  Rr: 144.648000, R: 145     Gr: 82.160840, G:  82     Br: 171.248000, B: 171
Sample        195 --  Rr: 56.448000, R:  56     Gr: 216.239180, G: 216     Br: 168.316000, B: 168
Sample        196 --  Rr: 84.146000, R:  84     Gr: 158.831840, G: 159     Br: 31.628000, B:  32
Sample        197 --  Rr: 110.382000, R: 110     Gr: 153.172560, G: 153     Br: 0.732000, B:   1
Sample        198 --  Rr: 47.392000, R:  47     Gr: 38.305260, G:  38     Br: 143.372000, B: 143
Sample        199 --  Rr: 89.518000, R:  90     Gr: 157.006260, G: 157     Br: 246.232000, B: 246
Sample        200 --  Rr: 48.870000, R:  49     Gr: 191.922740, G: 192     Br: 111.648000, B: 112
Sample        201 --  Rr: 76.086000, R:  76     Gr: 214.598980, G: 215     Br: 63.856000, B:  64
Sample        202 --  Rr: 213.030000, R: 213     Gr: 186.794740, G: 187     Br: 163.648000, B: 164
Sample        203 --  Rr: 208.924000, R: 209     Gr: 100.783180, G: 101     Br: 3.276000, B:   3
Sample        204 --  Rr: 174.718000, R: 175     Gr: 29.563840, G:  30     Br: 196.548000, B: 197
Sample        205 --  Rr: 189.638000, R: 190     Gr: 158.379740, G: 158     Br: 116.928000, B: 117
Sample        206 --  Rr: 55.056000, R:  55     Gr: 230.816720, G: 231     Br: 35.504000, B:  36
Sample        207 --  Rr: 92.126000, R:  92     Gr: 150.461580, G: 150     Br: 246.776000, B: 247
Sample        208 --  Rr: 235.522000, R: 236     Gr: 121.926200, G: 122     Br: 70.260000, B:  70
Sample        209 --  Rr: 22.800000, R:  23     Gr: 245.766620, G: 246     Br: 104.524000, B: 105
Sample        210 --  Rr: 188.402000, R: 188     Gr: 188.006600, G: 188     Br: 178.140000, B: 178
Sample        211 --  Rr: 70.196000, R:  70     Gr: 67.545400, G:  68     Br: 108.440000, B: 108
Sample        212 --  Rr: 203.482000, R: 203     Gr: 138.402720, G: 138     Br: 34.364000, B:  34
Sample        213 --  Rr: 4.714000, R:   5     Gr: 92.953180, G:  93     Br: 79.176000, B:  79
Sample        214 --  Rr: 35.418000, R:  35     Gr: 219.035460, G: 219     Br: 209.072000, B: 209
Sample        215 --  Rr: 102.784000, R: 103     Gr: 110.076880, G: 110     Br: 163.616000, B: 164
Sample        216 --  Rr: 205.080000, R: 205     Gr: 111.144220, G: 111     Br: 196.844000, B: 197
Sample        217 --  Rr: 142.070000, R: 142     Gr: 75.577580, G:  76     Br: 54.016000, B:  54
Sample        218 --  Rr: 234.964000, R: 235     Gr: 58.346540, G:  58     Br: 135.948000, B: 136
Sample        219 --  Rr: 76.900000, R:  77     Gr: 208.171360, G: 208     Br: 15.872000, B:  16
Sample        220 --  Rr: 195.512000, R: 196     Gr: 99.379500, G:  99     Br: 1.820000, B:   2
Sample        221 --  Rr: 165.126000, R: 165     Gr: 247.895520, G: 248     Br: 193.964000, B: 194
Sample        222 --  Rr: 108.462000, R: 108     Gr: 12.922720, G:  13     Br: 219.164000, B: 219
Sample        223 --  Rr: 181.608000, R: 182     Gr: 174.864300, G: 175     Br: 167.140000, B: 167
Sample        224 --  Rr: 156.316000, R: 156     Gr: 6.739280, G:   7     Br: 213.216000, B: 213
Sample        225 --  Rr: 252.120000, R: 252     Gr: 138.919600, G: 139     Br: 97.120000, B:  97
Sample        226 --  Rr: 232.884000, R: 233     Gr: 160.870660, G: 161     Br: 87.172000, B:  87
Sample        227 --  Rr: 56.578000, R:  57     Gr: 47.850080, G:  48     Br: 236.796000, B: 237
Sample        228 --  Rr: 65.256000, R:  65     Gr: 7.381760, G:   7     Br: 18.912000, B:  19
Sample        229 --  Rr: 48.598000, R:  49     Gr: 17.676660, G:  18     Br: 220.112000, B: 220
Sample        230 --  Rr: 73.086000, R:  73     Gr: 223.643880, G: 224     Br: -1.164000, B: 255
Sample        231 --  Rr: 45.332000, R:  45     Gr: 100.072400, G: 100     Br: 181.600000, B: 182
Sample        232 --  Rr: 141.904000, R: 142     Gr: 30.834380, G:  31     Br: 74.316000, B:  74
Sample        233 --  Rr: 87.332000, R:  87     Gr: 153.429020, G: 153     Br: 165.124000, B: 165
Sample        234 --  Rr: 25.186000, R:  25     Gr: 8.681960, G:   9     Br: 196.252000, B: 196
Sample        235 --  Rr: 28.960000, R:  29     Gr: 66.119900, G:  66     Br: 83.580000, B:  84
Sample        236 --  Rr: 51.106000, R:  51     Gr: 167.425560, G: 167     Br: 30.172000, B:  30
Sample        237 --  Rr: 74.010000, R:  74     Gr: 27.983080, G:  28     Br: 249.516000, B: 250
Sample        238 --  Rr: 0.584000, R:   1     Gr: 218.798600, G: 219     Br: 205.160000, B: 205
Sample        239 --  Rr: 189.718000, R: 190     Gr: 73.127460, G:  73     Br: 64.472000, B:  64
Sample        240 --  Rr: 119.864000, R: 120     Gr: 20.832060, G:  21     Br: 236.252000, B: 236
Sample        241 --  Rr: 226.572000, R: 227     Gr: 27.724540, G:  28     Br: 192.828000, B: 193
Sample        242 --  Rr: 174.140000, R: 174     Gr: 21.195040, G:  21     Br: 100.808000, B: 101
Sample        243 --  Rr: 1.820000, R:   2     Gr: 208.099440, G: 208     Br: 46.488000, B:  46
Sample        244 --  Rr: 129.714000, R: 130     Gr: 247.549220, G: 248     Br: 51.784000, B:  52
Sample        245 --  Rr: 143.432000, R: 143     Gr: 127.125540, G: 127     Br: 30.628000, B:  31
Sample        246 --  Rr: 209.060000, R: 209     Gr: 139.038340, G: 139     Br: 200.668000, B: 201
Sample        247 --  Rr: 148.834000, R: 149     Gr: 131.788000, G: 132     Br: 27.540000, B:  28
Sample        248 --  Rr: 78.734000, R:  79     Gr: 134.455560, G: 134     Br: 197.652000, B: 198
Sample        249 --  Rr: 6.674000, R:   7     Gr: 131.040660, G: 131     Br: 141.072000, B: 141
Sample        250 --  Rr: 115.950000, R: 116     Gr: 176.767720, G: 177     Br: 110.244000, B: 110
Sample        251 --  Rr: 93.060000, R:  93     Gr: 33.362540, G:  33     Br: 31.508000, B:  32
Sample        252 --  Rr: 181.784000, R: 182     Gr: 197.680380, G: 198     Br: 198.316000, B: 198
Sample        253 --  Rr: 253.442000, R: 253     Gr: 223.457780, G: 223     Br: 149.576000, B: 150
Sample        254 --  Rr: 131.588000, R: 132     Gr: 167.686120, G: 168     Br: 19.504000, B:  20
Sample        255 --  Rr: -179.456000, R:  77     Gr: 135.454720, G: 135     Br: -226.816000, B:  29
__________ ___________  _______________________________
\______   \\_   _____/ /   _____/\_   _____/\__    ___/
 |       _/ |    __)_  \_____  \  |    __)_   |    |   
 |    |   \ |        \ /        \ |        \  |    |  0->1 time =         10
 |____|_  //_______  //_______  //_______  /  |____|   
 ASYNC  \/         \/         \/         \/            
__________ ___________  _______________________________
\______   \\_   _____/ /   _____/\_   _____/\__    ___/
 |       _/ |    __)_  \_____  \  |    __)_   |    |   
 |    |   \ |        \ /        \ |        \  |    |  1->0 time =        110
 |____|_  //_______  //_______  //_______  /  |____|   
 ASYNC  \/         \/         \/         \/            

Begin Test:
On Cycle           1 (RV: 12153524) -- valid_i: 1, ready_n: 0, data_i: 10456990
On Cycle           2 (RV: c0895e81) -- valid_i: 0, ready_n: 0, data_i:        0
On Cycle           3 (RV: 8484d609) -- valid_i: 0, ready_n: 0, data_i:        0
On Cycle           4 (RV: b1f05663) -- valid_i: 0, ready_n: 0, data_i:        0
On Cycle           5 (RV: 06b97b0d) -- valid_i: 0, ready_n: 0, data_i:        0
On Cycle           6 (RV: 46df998d) -- valid_i: 0, ready_n: 0, data_i:        0
On Cycle           7 (RV: b2c28465) -- valid_i: 0, ready_n: 0, data_i:        0
On Cycle           8 (RV: 89375212) -- valid_i: 1, ready_n: 0, data_i:  1789845
On Cycle           9 (RV: 00f3e301) -- valid_i: 0, ready_n: 0, data_i:        0
On Cycle          10 (RV: 06d7cd0d) -- valid_i: 0, ready_n: 0, data_i:        0
On Cycle          11 (RV: 3b23f176) -- valid_i: 1, ready_n: 0, data_i: 11125100
On Cycle          12 (RV: 1e8dcd3d) -- valid_i: 0, ready_n: 0, data_i:        0
On Cycle          13 (RV: 76d457ed) -- valid_i: 0, ready_n: 0, data_i:        0
On Cycle          14 (RV: 462df78c) -- valid_i: 0, ready_n: 1, data_i:        0
On Cycle          15 (RV: 7cfde9f9) -- valid_i: 0, ready_n: 0, data_i:        0
On output iteration           0 -- Correct Data Transmitted
On Cycle          16 (RV: e33724c6) -- valid_i: 0, ready_n: 0, data_i:        0
On Cycle          17 (RV: e2f784c5) -- valid_i: 0, ready_n: 0, data_i:        0
On Cycle          18 (RV: d513d2aa) -- valid_i: 0, ready_n: 0, data_i:        0
On Cycle          19 (RV: 72aff7e5) -- valid_i: 0, ready_n: 0, data_i:        0
On Cycle          20 (RV: bbd27277) -- valid_i: 0, ready_n: 0, data_i:        0
