Logic Design with Verilog/lab4/part2/fifo_1r1w/verilator.log
TOP.testbench.cg with cycle_time_p          10

  ______          __  __                    __       _____ ____          ___    ___        
 /_  __/__  _____/ /_/ /_  ___  ____  _____/ /_     / __(_) __/___      <  /___<  /      __
  / / / _ \/ ___/ __/ __ \/ _ \/ __ \/ ___/ __ \   / /_/ / /_/ __ \     / / ___/ / | /| / /
 / / /  __(__  ) /_/ /_/ /  __/ / / / /__/ / / /  / __/ / __/ /_/ /    / / /  / /| |/ |/ / 
/_/  \___/____/\__/_.___/\___/_/ /_/\___/_/ /_/  /_/ /_/_/  \____/____/_/_/  /_/ |__/|__/  
                                                                /_____/                    
__________ ___________  _______________________________
\______   \\_   _____/ /   _____/\_   _____/\__    ___/
 |       _/ |    __)_  \_____  \  |    __)_   |    |   
 |    |   \ |        \ /        \ |        \  |    |  0->1 time =         10
 |____|_  //_______  //_______  //_______  /  |____|   
 ASYNC  \/         \/         \/         \/            
__________ ___________  _______________________________
\______   \\_   _____/ /   _____/\_   _____/\__    ___/
 |       _/ |    __)_  \_____  \  |    __)_   |    |   
 |    |   \ |        \ /        \ |        \  |    |  1->0 time =        110
 |____|_  //_______  //_______  //_______  /  |____|   
 ASYNC  \/         \/         \/         \/            

Begin Test:
On Cycle           1 (RV: d73bab80) -- valid_i: 1, yumi_n: 0
On Cycle           2 (RV: 3a187961) -- valid_i: 0, yumi_n: 0
On Cycle           3 (RV: 2e53ff61) -- valid_i: 0, yumi_n: 0
On Cycle           4 (RV: e2e4c257) -- valid_i: 0, yumi_n: 0
On Cycle           5 (RV: 774c90d2) -- valid_i: 0, yumi_n: 0
On Cycle           6 (RV: 67f06afc) -- valid_i: 0, yumi_n: 1
On Cycle           7 (RV: 160b76bc) -- valid_i: 0, yumi_n: 0
On Cycle           8 (RV: f1d3b67b) -- valid_i: 0, yumi_n: 0
On Cycle           9 (RV: d2751b31) -- valid_i: 0, yumi_n: 0
On Cycle          10 (RV: 9bb61b7e) -- valid_i: 1, yumi_n: 0
On Cycle          11 (RV: 4f715aed) -- valid_i: 0, yumi_n: 0
On Cycle          12 (RV: be69f964) -- valid_i: 1, yumi_n: 1
On Cycle          13 (RV: 408a63d4) -- valid_i: 1, yumi_n: 0
On Cycle          14 (RV: aae955bd) -- valid_i: 0, yumi_n: 0
On Cycle          15 (RV: 165ac114) -- valid_i: 1, yumi_n: 1
On Cycle          16 (RV: ad6cd8cb) -- valid_i: 0, yumi_n: 0
On Cycle          17 (RV: 35100acb) -- valid_i: 0, yumi_n: 0
On Cycle          18 (RV: 525a32db) -- valid_i: 0, yumi_n: 0
On Cycle          19 (RV: deb733e9) -- valid_i: 0, yumi_n: 0
On Cycle          20 (RV: 1219054e) -- valid_i: 1, yumi_n: 0
On Cycle          21 (RV: fc047624) -- valid_i: 1, yumi_n: 1
On Cycle          22 (RV: 876f7742) -- valid_i: 1, yumi_n: 0
On Cycle          23 (RV: ae252c07) -- valid_i: 0, yumi_n: 0
On Cycle          24 (RV: d80a7500) -- valid_i: 1, yumi_n: 1
On Cycle          25 (RV: d5d331d6) -- valid_i: 1, yumi_n: 0
On Cycle          26 (RV: 0b9ce53f) -- valid_i: 0, yumi_n: 0
On Cycle          27 (RV: c4207d39) -- valid_i: 0, yumi_n: 0
On Cycle          28 (RV: e2aedcf9) -- valid_i: 0, yumi_n: 0
On Cycle          29 (RV: ba8684d7) -- valid_i: 0, yumi_n: 0
On Cycle          30 (RV: df37df7a) -- valid_i: 1, yumi_n: 1
On Cycle          31 (RV: 92601a76) -- valid_i: 1, yumi_n: 0
On Cycle          32 (RV: b538f67c) -- valid_i: 1, yumi_n: 1
On Cycle          33 (RV: f1557042) -- valid_i: 1, yumi_n: 0
On Cycle          34 (RV: 039f3aae) -- valid_i: 1, yumi_n: 1
On Cycle          35 (RV: 9f17e476) -- valid_i: 1, yumi_n: 0
On Cycle          36 (RV: 5b85762b) -- valid_i: 0, yumi_n: 0
On Cycle          37 (RV: 33814127) -- valid_i: 0, yumi_n: 0
On Cycle          38 (RV: 343f75d2) -- valid_i: 1, yumi_n: 1
On Cycle          39 (RV: 95bd1ea2) -- valid_i: 1, yumi_n: 0
On Cycle          40 (RV: a54a6306) -- valid_i: 1, yumi_n: 1
On Cycle          41 (RV: c0b80509) -- valid_i: 0, yumi_n: 0
On Cycle          42 (RV: 321a8a0f) -- valid_i: 0, yumi_n: 0
On Cycle          43 (RV: 524f51dc) -- valid_i: 1, yumi_n: 0
On Cycle          44 (RV: 823152e4) -- valid_i: 1, yumi_n: 1
On Cycle          45 (RV: 10866559) -- valid_i: 0, yumi_n: 0
On Cycle          46 (RV: 4bd0db79) -- valid_i: 0, yumi_n: 0
On Cycle          47 (RV: b8466aac) -- valid_i: 1, yumi_n: 0
On Cycle          48 (RV: 220c9a80) -- valid_i: 1, yumi_n: 1
On Cycle          49 (RV: 3e2345f7) -- valid_i: 0, yumi_n: 0
On Cycle          50 (RV: f34a90ea) -- valid_i: 1, yumi_n: 0
On Cycle          51 (RV: 36f7828d) -- valid_i: 0, yumi_n: 0
On Cycle          52 (RV: 663257af) -- valid_i: 0, yumi_n: 0
On Cycle          53 (RV: 4bf2f889) -- valid_i: 0, yumi_n: 0
On Cycle          54 (RV: 0f693f10) -- valid_i: 1, yumi_n: 1
On Cycle          55 (RV: 252693ca) -- valid_i: 1, yumi_n: 0
On Cycle          56 (RV: 87e359c6) -- valid_i: 1, yumi_n: 1
On Cycle          57 (RV: ed6470ab) -- valid_i: 0, yumi_n: 0
On Cycle          58 (RV: a568ea78) -- valid_i: 1, yumi_n: 0
On Cycle          59 (RV: fc8c694c) -- valid_i: 1, yumi_n: 1
On Cycle          60 (RV: cbbdc9f7) -- valid_i: 0, yumi_n: 0
On Cycle          61 (RV: 3359ea5a) -- valid_i: 1, yumi_n: 0
On Cycle          62 (RV: d589c854) -- valid_i: 1, yumi_n: 1
On Cycle          63 (RV: 3ab7fc11) -- valid_i: 0, yumi_n: 0
On Cycle          64 (RV: cf68c3c9) -- valid_i: 0, yumi_n: 0
On Cycle          65 (RV: 4df98d29) -- valid_i: 0, yumi_n: 0
On Cycle          66 (RV: 0d507e10) -- valid_i: 1, yumi_n: 0
On Cycle          67 (RV: 35fca314) -- valid_i: 1, yumi_n: 1
On Cycle          68 (RV: bb1b7971) -- valid_i: 0, yumi_n: 0
On Cycle          69 (RV: 023f162a) -- valid_i: 1, yumi_n: 0
On Cycle          70 (RV: 8da0cf31) -- valid_i: 0, yumi_n: 0
On Cycle          71 (RV: 8146a48c) -- valid_i: 1, yumi_n: 1
On Cycle          72 (RV: 464831e6) -- valid_i: 1, yumi_n: 0
On Cycle          73 (RV: cd285d82) -- valid_i: 1, yumi_n: 1
On Cycle          74 (RV: 6deaf886) -- valid_i: 1, yumi_n: 0
On Cycle          75 (RV: 46ac746e) -- valid_i: 1, yumi_n: 1
On Cycle          76 (RV: 6ce748d9) -- valid_i: 0, yumi_n: 0
On Cycle          77 (RV: 7435c96e) -- valid_i: 1, yumi_n: 0
On Cycle          78 (RV: e369578d) -- valid_i: 0, yumi_n: 0
On Cycle          79 (RV: eab580b8) -- valid_i: 1, yumi_n: 1
On Cycle          80 (RV: f5486054) -- valid_i: 1, yumi_n: 0
On Cycle          81 (RV: 0e4d848d) -- valid_i: 0, yumi_n: 0
On Cycle          82 (RV: f5dcaa69) -- valid_i: 0, yumi_n: 0
On Cycle          83 (RV: 93d5dad6) -- valid_i: 1, yumi_n: 1
On Cycle          84 (RV: 89be5e6e) -- valid_i: 1, yumi_n: 0
On Cycle          85 (RV: 74523b65) -- valid_i: 0, yumi_n: 0
On Cycle          86 (RV: e17612b2) -- valid_i: 1, yumi_n: 1
On Cycle          87 (RV: 4a869c57) -- valid_i: 0, yumi_n: 0
On Cycle          88 (RV: b9905a4e) -- valid_i: 1, yumi_n: 0
On Cycle          89 (RV: 5c94e664) -- valid_i: 1, yumi_n: 1
On Cycle          90 (RV: 1506fc99) -- valid_i: 0, yumi_n: 0
On Cycle          91 (RV: 6bdccfa9) -- valid_i: 0, yumi_n: 0
On Cycle          92 (RV: c0186540) -- valid_i: 1, yumi_n: 0
On Cycle          93 (RV: a373e743) -- valid_i: 0, yumi_n: 0
On Cycle          94 (RV: d167beaa) -- valid_i: 1, yumi_n: 1
On Cycle          95 (RV: ecea9bf6) -- valid_i: 1, yumi_n: 0
On Cycle          96 (RV: 8167c3e7) -- valid_i: 0, yumi_n: 0
On Cycle          97 (RV: ee4f1dd7) -- valid_i: 0, yumi_n: 0
On Cycle          98 (RV: 80e2bc22) -- valid_i: 1, yumi_n: 1
On Cycle          99 (RV: a8214153) -- valid_i: 0, yumi_n: 0
On Cycle         100 (RV: c284da86) -- valid_i: 1, yumi_n: 0
On Cycle         101 (RV: 8957210e) -- valid_i: 1, yumi_n: 1
On Cycle         102 (RV: eee11fe4) -- valid_i: 1, yumi_n: 0
On Cycle         103 (RV: 49be76c9) -- valid_i: 0, yumi_n: 0
On Cycle         104 (RV: eb424c40) -- valid_i: 1, yumi_n: 1
On Cycle         105 (RV: 83e41849) -- valid_i: 0, yumi_n: 0
On Cycle         106 (RV: 3e6e01f3) -- valid_i: 0, yumi_n: 0
On Cycle         107 (RV: a9867c09) -- valid_i: 0, yumi_n: 0
On Cycle         108 (RV: 762540f8) -- valid_i: 1, yumi_n: 0
On Cycle         109 (RV: 2770ee5b) -- valid_i: 0, yumi_n: 0
On Cycle         110 (RV: 90f3d996) -- valid_i: 1, yumi_n: 1
On Cycle         111 (RV: fa855610) -- valid_i: 1, yumi_n: 0
On Cycle         112 (RV: bd6c2f82) -- valid_i: 1, yumi_n: 1
On Cycle         113 (RV: d09b696d) -- valid_i: 0, yumi_n: 0
On Cycle         114 (RV: 8cff90de) -- valid_i: 1, yumi_n: 0
On Cycle         115 (RV: 9fe02c1b) -- valid_i: 0, yumi_n: 0
On Cycle         116 (RV: 648d6f80) -- valid_i: 1, yumi_n: 1
On Cycle         117 (RV: 9d84bddd) -- valid_i: 0, yumi_n: 0
On Cycle         118 (RV: 523b353b) -- valid_i: 0, yumi_n: 0
On Cycle         119 (RV: de550d7a) -- valid_i: 1, yumi_n: 0
On Cycle         120 (RV: 9488f89f) -- valid_i: 0, yumi_n: 0
On Cycle         121 (RV: c8f2ee0a) -- valid_i: 1, yumi_n: 1
On Cycle         122 (RV: 081f4fb8) -- valid_i: 1, yumi_n: 0
On Cycle         123 (RV: 2d66ee9c) -- valid_i: 1, yumi_n: 1
On Cycle         124 (RV: 73d540d3) -- valid_i: 0, yumi_n: 0
On Cycle         125 (RV: e1bcf8b4) -- valid_i: 1, yumi_n: 0
On Cycle         126 (RV: a779d049) -- valid_i: 0, yumi_n: 0
On Cycle         127 (RV: f83bc383) -- valid_i: 0, yumi_n: 0
On Cycle         128 (RV: ce3533dc) -- valid_i: 1, yumi_n: 1
On Cycle         129 (RV: 1b5718e9) -- valid_i: 0, yumi_n: 0
On Cycle         130 (RV: f4616756) -- valid_i: 1, yumi_n: 0
On Cycle         131 (RV: 61a7b71f) -- valid_i: 0, yumi_n: 0
On Cycle         132 (RV: a10dcb5f) -- valid_i: 0, yumi_n: 0
On Cycle         133 (RV: 6b059d65) -- valid_i: 0, yumi_n: 0
On Cycle         134 (RV: 8855538c) -- valid_i: 1, yumi_n: 1
On Cycle         135 (RV: 2a2ce2d8) -- valid_i: 1, yumi_n: 0
On Cycle         136 (RV: b577b3ed) -- valid_i: 0, yumi_n: 0
On Cycle         137 (RV: d9511968) -- valid_i: 1, yumi_n: 1
On Cycle         138 (RV: 9ae4c419) -- valid_i: 0, yumi_n: 0
On Cycle         139 (RV: 8d837b3c) -- valid_i: 1, yumi_n: 0
On Cycle         140 (RV: dc426cc5) -- valid_i: 0, yumi_n: 0
On Cycle         141 (RV: 473cff67) -- valid_i: 0, yumi_n: 0
On Cycle         142 (RV: f4b60223) -- valid_i: 0, yumi_n: 0
On Cycle         143 (RV: b87591bf) -- valid_i: 0, yumi_n: 0
On Cycle         144 (RV: f1931901) -- valid_i: 0, yumi_n: 0
On Cycle         145 (RV: 86491b84) -- valid_i: 1, yumi_n: 1
On Cycle         146 (RV: 6e503d43) -- valid_i: 0, yumi_n: 0
On Cycle         147 (RV: cf6b0993) -- valid_i: 0, yumi_n: 0
On Cycle         148 (RV: 226f0123) -- valid_i: 0, yumi_n: 0
On Cycle         149 (RV: 8ccfaa1b) -- valid_i: 0, yumi_n: 0
On Cycle         150 (RV: feec4747) -- valid_i: 0, yumi_n: 0
On Cycle         151 (RV: 34956ae8) -- valid_i: 1, yumi_n: 0
On Cycle         152 (RV: 4a2050a9) -- valid_i: 0, yumi_n: 0
On Cycle         153 (RV: a6cd636a) -- valid_i: 1, yumi_n: 1
On Cycle         154 (RV: 47060779) -- valid_i: 0, yumi_n: 0
On Cycle         155 (RV: 5ac7d09a) -- valid_i: 1, yumi_n: 0
On Cycle         156 (RV: 5d08ba4e) -- valid_i: 1, yumi_n: 1
On Cycle         157 (RV: 65d5e3f3) -- valid_i: 0, yumi_n: 0
On Cycle         158 (RV: 06a91e2f) -- valid_i: 0, yumi_n: 0
On Cycle         159 (RV: 027d2929) -- valid_i: 0, yumi_n: 0
On Cycle         160 (RV: 3d523df1) -- valid_i: 0, yumi_n: 0
On Cycle         161 (RV: abad2e80) -- valid_i: 1, yumi_n: 0
On Cycle         162 (RV: dda3fa66) -- valid_i: 1, yumi_n: 1
On Cycle         163 (RV: 41330ea9) -- valid_i: 0, yumi_n: 0
On Cycle         164 (RV: 8df4b391) -- valid_i: 0, yumi_n: 0
On Cycle         165 (RV: ee984861) -- valid_i: 0, yumi_n: 0
On Cycle         166 (RV: 9f83d355) -- valid_i: 0, yumi_n: 0
On Cycle         167 (RV: a511e1e2) -- valid_i: 1, yumi_n: 0
On Cycle         168 (RV: 12748c04) -- valid_i: 1, yumi_n: 1
On Cycle         169 (RV: 9117f686) -- valid_i: 1, yumi_n: 0
On Cycle         170 (RV: d10374ce) -- valid_i: 1, yumi_n: 1
On Cycle         171 (RV: a200c0e7) -- valid_i: 0, yumi_n: 0
On Cycle         172 (RV: 0bb5a8d1) -- valid_i: 0, yumi_n: 0
On Cycle         173 (RV: dd78709b) -- valid_i: 0, yumi_n: 0
On Cycle         174 (RV: aa11824c) -- valid_i: 1, yumi_n: 0
On Cycle         175 (RV: 4ccdfd7e) -- valid_i: 1, yumi_n: 1
On Cycle         176 (RV: dda8da98) -- valid_i: 1, yumi_n: 0
On Cycle         177 (RV: db40f46d) -- valid_i: 0, yumi_n: 0
On Cycle         178 (RV: 3d250a31) -- valid_i: 0, yumi_n: 0
On Cycle         179 (RV: 8c97e584) -- valid_i: 1, yumi_n: 1
On Cycle         180 (RV: 9698ae20) -- valid_i: 1, yumi_n: 0
On Cycle         181 (RV: e480b537) -- valid_i: 0, yumi_n: 0
On Cycle         182 (RV: 36c099d1) -- valid_i: 0, yumi_n: 0
On Cycle         183 (RV: 6aecb90b) -- valid_i: 0, yumi_n: 0
On Cycle         184 (RV: d7b8ebcf) -- valid_i: 0, yumi_n: 0
On Cycle         185 (RV: f3f73cd7) -- valid_i: 0, yumi_n: 0
On Cycle         186 (RV: b9e4f6ac) -- valid_i: 1, yumi_n: 1
On Cycle         187 (RV: d8feaf20) -- valid_i: 1, yumi_n: 0
On Cycle         188 (RV: 854bd34d) -- valid_i: 0, yumi_n: 0
On Cycle         189 (RV: 778e7ac8) -- valid_i: 1, yumi_n: 1
On Cycle         190 (RV: 84763ec2) -- valid_i: 1, yumi_n: 0
On Cycle         191 (RV: 3272c8dc) -- valid_i: 1, yumi_n: 1
On Cycle         192 (RV: bf7b76ab) -- valid_i: 0, yumi_n: 0
On Cycle         193 (RV: eb0942ba) -- valid_i: 1, yumi_n: 0
On Cycle         194 (RV: 3c9e33b4) -- valid_i: 1, yumi_n: 1
On Cycle         195 (RV: 92588dc6) -- valid_i: 1, yumi_n: 0
On Cycle         196 (RV: 03e1a103) -- valid_i: 0, yumi_n: 0
On Cycle         197 (RV: 86acf514) -- valid_i: 1, yumi_n: 1
On Cycle         198 (RV: 9f2242de) -- valid_i: 1, yumi_n: 0
On Cycle         199 (RV: 2801e94e) -- valid_i: 1, yumi_n: 1
On Cycle         200 (RV: 9962f2ab) -- valid_i: 0, yumi_n: 0
On Cycle         201 (RV: 34009449) -- valid_i: 0, yumi_n: 0
On Cycle         202 (RV: b8d12416) -- valid_i: 1, yumi_n: 0
On Cycle         203 (RV: c167722c) -- valid_i: 1, yumi_n: 1
On Cycle         204 (RV: ec1a6991) -- valid_i: 0, yumi_n: 0
On Cycle         205 (RV: 50b94fc5) -- valid_i: 0, yumi_n: 0
On Cycle         206 (RV: 2d066f07) -- valid_i: 0, yumi_n: 0
On Cycle         207 (RV: 6af88e98) -- valid_i: 1, yumi_n: 0
On Cycle         208 (RV: ae023116) -- valid_i: 1, yumi_n: 1
On Cycle         209 (RV: e4e2a696) -- valid_i: 1, yumi_n: 0
On Cycle         210 (RV: d1644324) -- valid_i: 1, yumi_n: 1
On Cycle         211 (RV: bf513e80) -- valid_i: 1, yumi_n: 0
On Cycle         212 (RV: 78d3c7ec) -- valid_i: 1, yumi_n: 1
On Cycle         213 (RV: 665d17fc) -- valid_i: 1, yumi_n: 0
On Cycle         214 (RV: a9a27449) -- valid_i: 0, yumi_n: 0
On Cycle         215 (RV: f13e3f72) -- valid_i: 1, yumi_n: 1
On Cycle         216 (RV: 557499c0) -- valid_i: 1, yumi_n: 0
On Cycle         217 (RV: 66dab2b4) -- valid_i: 1, yumi_n: 1
On Cycle         218 (RV: 3564d93c) -- valid_i: 1, yumi_n: 0
On Cycle         219 (RV: 66b9b315) -- valid_i: 0, yumi_n: 0
On Cycle         220 (RV: d186281f) -- valid_i: 0, yumi_n: 0
On Cycle         221 (RV: 10d7a58d) -- valid_i: 0, yumi_n: 0
On Cycle         222 (RV: 96575ac3) -- valid_i: 0, yumi_n: 0
On Cycle         223 (RV: b8d35074) -- valid_i: 1, yumi_n: 1
On Cycle         224 (RV: ee4fa844) -- valid_i: 1, yumi_n: 0
On Cycle         225 (RV: e1ff6585) -- valid_i: 0, yumi_n: 0
On Cycle         226 (RV: bd57f356) -- valid_i: 1, yumi_n: 1
On Cycle         227 (RV: f0f29bcb) -- valid_i: 0, yumi_n: 0
On Cycle         228 (RV: 7b71db91) -- valid_i: 0, yumi_n: 0
On Cycle         229 (RV: 8d426aea) -- valid_i: 1, yumi_n: 0
On Cycle         230 (RV: 3b4c9ca4) -- valid_i: 1, yumi_n: 1
On Cycle         231 (RV: 0a846dbb) -- valid_i: 0, yumi_n: 0
On Cycle         232 (RV: b7ab5197) -- valid_i: 0, yumi_n: 0
On Cycle         233 (RV: 41334005) -- valid_i: 0, yumi_n: 0
On Cycle         234 (RV: 0a8b4c41) -- valid_i: 0, yumi_n: 0
On Cycle         235 (RV: 14b30692) -- valid_i: 1, yumi_n: 0
On Cycle         236 (RV: c3302cfa) -- valid_i: 1, yumi_n: 1
On Cycle         237 (RV: 80457614) -- valid_i: 1, yumi_n: 0
On Cycle         238 (RV: 48304871) -- valid_i: 0, yumi_n: 0
On Cycle         239 (RV: f0f927e1) -- valid_i: 0, yumi_n: 0
On Cycle         240 (RV: d7123190) -- valid_i: 1, yumi_n: 1
On Cycle         241 (RV: c9c8a4dd) -- valid_i: 0, yumi_n: 0
On Cycle         242 (RV: 2cb80c5a) -- valid_i: 1, yumi_n: 0
On Cycle         243 (RV: 1be2eabc) -- valid_i: 1, yumi_n: 1
On Cycle         244 (RV: 6eb5d37f) -- valid_i: 0, yumi_n: 0
On Cycle         245 (RV: 529a1edf) -- valid_i: 0, yumi_n: 0
On Cycle         246 (RV: e46fbbc2) -- valid_i: 1, yumi_n: 0
On Cycle         247 (RV: da2913b2) -- valid_i: 1, yumi_n: 1
On Cycle         248 (RV: 92e252e4) -- valid_i: 1, yumi_n: 0
On Cycle         249 (RV: 77fc0f08) -- valid_i: 1, yumi_n: 1
On Cycle         250 (RV: f5fd4960) -- valid_i: 1, yumi_n: 0
On Cycle         251 (RV: 3b6ea67d) -- valid_i: 0, yumi_n: 0
On Cycle         252 (RV: 92d19484) -- valid_i: 1, yumi_n: 1
On Cycle         253 (RV: dbb226d1) -- valid_i: 0, yumi_n: 0
On Cycle         254 (RV: c7af3dac) -- valid_i: 1, yumi_n: 0
On Cycle         255 (RV: c820ae4b) -- valid_i: 0, yumi_n: 0
On Cycle         256 (RV: 1cb0e917) -- valid_i: 0, yumi_n: 0
On Cycle         257 (RV: db28c984) -- valid_i: 1, yumi_n: 1
On Cycle         258 (RV: 7c4734e6) -- valid_i: 1, yumi_n: 0
On Cycle         259 (RV: ee9cf489) -- valid_i: 0, yumi_n: 0
On Cycle         260 (RV: 5ff12679) -- valid_i: 0, yumi_n: 0
On Cycle         261 (RV: 90945aa9) -- valid_i: 0, yumi_n: 0
On Cycle         262 (RV: 37f43908) -- valid_i: 1, yumi_n: 1
On Cycle         263 (RV: e12d3207) -- valid_i: 0, yumi_n: 0
On Cycle         264 (RV: 2c115356) -- valid_i: 1, yumi_n: 0
On Cycle         265 (RV: fc1e635b) -- valid_i: 0, yumi_n: 0
On Cycle         266 (RV: be0020d4) -- valid_i: 1, yumi_n: 1
On Cycle         267 (RV: a26a0b4c) -- valid_i: 1, yumi_n: 0
On Cycle         268 (RV: c29b6d8f) -- valid_i: 0, yumi_n: 0
On Cycle         269 (RV: 997d21ac) -- valid_i: 1, yumi_n: 1
On Cycle         270 (RV: bf5f7df0) -- valid_i: 1, yumi_n: 0
On Cycle         271 (RV: bd988fad) -- valid_i: 0, yumi_n: 0
On Cycle         272 (RV: cfacedee) -- valid_i: 1, yumi_n: 1
On Cycle         273 (RV: de4bf9cb) -- valid_i: 0, yumi_n: 0
On Cycle         274 (RV: 2405a738) -- valid_i: 1, yumi_n: 0
On Cycle         275 (RV: 45a4200c) -- valid_i: 1, yumi_n: 1
On Cycle         276 (RV: 1690130e) -- valid_i: 1, yumi_n: 0
On Cycle         277 (RV: 1cf113ab) -- valid_i: 0, yumi_n: 0
On Cycle         278 (RV: f63dfa81) -- valid_i: 0, yumi_n: 0
On Cycle         279 (RV: 3682cd45) -- valid_i: 0, yumi_n: 0
On Cycle         280 (RV: 95efd2be) -- valid_i: 1, yumi_n: 1
On Cycle         281 (RV: 868fbc84) -- valid_i: 1, yumi_n: 0
On Cycle         282 (RV: dfee8162) -- valid_i: 1, yumi_n: 1
On Cycle         283 (RV: 6f7ffdcd) -- valid_i: 0, yumi_n: 0
On Cycle         284 (RV: a8363ee9) -- valid_i: 0, yumi_n: 0
On Cycle         285 (RV: 6d1e63b3) -- valid_i: 0, yumi_n: 0
On Cycle         286 (RV: 2120371f) -- valid_i: 0, yumi_n: 0
On Cycle         287 (RV: 8cab1422) -- valid_i: 1, yumi_n: 0
On Cycle         288 (RV: ce786b20) -- valid_i: 1, yumi_n: 1
On Cycle         289 (RV: 04d8cee6) -- valid_i: 1, yumi_n: 0
On Cycle         290 (RV: 92f7a662) -- valid_i: 1, yumi_n: 1
On Cycle         291 (RV: 1dd508fa) -- valid_i: 1, yumi_n: 0
On Cycle         292 (RV: 77f93b6e) -- valid_i: 1, yumi_n: 1
On Cycle         293 (RV: c322eca7) -- valid_i: 0, yumi_n: 0
On Cycle         294 (RV: f696ddde) -- valid_i: 1, yumi_n: 0
On Cycle         295 (RV: f45a9ed6) -- valid_i: 1, yumi_n: 1
On Cycle         296 (RV: 2591ae85) -- valid_i: 0, yumi_n: 0
On Cycle         297 (RV: eee647a3) -- valid_i: 0, yumi_n: 0
On Cycle         298 (RV: 4f9966a5) -- valid_i: 0, yumi_n: 0
On Cycle         299 (RV: a6a4c65b) -- valid_i: 0, yumi_n: 0
On Cycle         300 (RV: 56d82ab9) -- valid_i: 0, yumi_n: 0
On Cycle         301 (RV: 20be9d9c) -- valid_i: 1, yumi_n: 0
On Cycle         302 (RV: fce79171) -- valid_i: 0, yumi_n: 0
On Cycle         303 (RV: 1d3ed578) -- valid_i: 1, yumi_n: 1
On Cycle         304 (RV: 4980556e) -- valid_i: 0, yumi_n: 0
- testbench.sv:224: Verilog $finish
Simulation time is              3185000
         78 data transmitted
[0;32m    ____  ___   __________[0m
[0;32m   / __ \/   | / ___/ ___/[0m
[0;32m  / /_/ / /| | \__ \__  [0m
[0;32m / ____/ ___ |___/ /__/ / [0m
[0;32m/_/   /_/  |_/____/____/  [0m

Simulation Succeeded!
