CSE-125/lab4/part2/elastic_pipe/verilator.log
TOP.testbench.cg with cycle_time_p          10

  ______          __  __                    __            __           __  _                  _          
 /_  __/__  _____/ /_/ /_  ___  ____  _____/ /_     ___  / /___ ______/ /_(_)____      ____  (_)___  ___ 
  / / / _ \/ ___/ __/ __ \/ _ \/ __ \/ ___/ __ \   / _ \/ / __ `/ ___/ __/ / ___/     / __ \/ / __ \/ _ \
 / / /  __(__  ) /_/ /_/ /  __/ / / / /__/ / / /  /  __/ / /_/ (__  ) /_/ / /__      / /_/ / / /_/ /  __/
/_/  \___/____/\__/_.___/\___/_/ /_/\___/_/ /_/   \___/_/\__,_/____/\__/_/\___/_____/ .___/_/ .___/\___/ 
                                                                             /_____/_/     /_/           
__________ ___________  _______________________________
\______   \\_   _____/ /   _____/\_   _____/\__    ___/
 |       _/ |    __)_  \_____  \  |    __)_   |    |   
 |    |   \ |        \ /        \ |        \  |    |  0->1 time =         10
 |____|_  //_______  //_______  //_______  /  |____|   
 ASYNC  \/         \/         \/         \/            
__________ ___________  _______________________________
\______   \\_   _____/ /   _____/\_   _____/\__    ___/
 |       _/ |    __)_  \_____  \  |    __)_   |    |   
 |    |   \ |        \ /        \ |        \  |    |  1->0 time =        110
 |____|_  //_______  //_______  //_______  /  |____|   
 ASYNC  \/         \/         \/         \/            

Begin Test:
On Cycle           1 (RV: ca972bfb) -- valid_i: 0, yumi_n: 0
On Cycle           2 (RV: 9f2015e8) -- valid_i: 1, yumi_n: 0
On Cycle           3 (RV: 900fd9c2) -- valid_i: 0, yumi_n: 0
On Cycle           4 (RV: 6e6dcddd) -- valid_i: 0, yumi_n: 0
On Cycle           5 (RV: 436841c8) -- valid_i: 1, yumi_n: 1
On Cycle           6 (RV: 9368d864) -- valid_i: 0, yumi_n: 0
On Cycle           7 (RV: 0976a661) -- valid_i: 0, yumi_n: 0
On Cycle           8 (RV: a1913ae5) -- valid_i: 0, yumi_n: 0
On Cycle           9 (RV: 05e9dd21) -- valid_i: 0, yumi_n: 0
On Cycle          10 (RV: 90c027f3) -- valid_i: 0, yumi_n: 0
On Cycle          11 (RV: 6d710459) -- valid_i: 0, yumi_n: 0
On Cycle          12 (RV: 026918f5) -- valid_i: 0, yumi_n: 0
On Cycle          13 (RV: 9c1016bd) -- valid_i: 0, yumi_n: 0
On Cycle          14 (RV: 40b41b7e) -- valid_i: 1, yumi_n: 0
On Cycle          15 (RV: 57aa2662) -- valid_i: 1, yumi_n: 1
On Cycle          16 (RV: 45769fca) -- valid_i: 1, yumi_n: 0
On Cycle          17 (RV: 07ba1e90) -- valid_i: 1, yumi_n: 1
On Cycle          18 (RV: 1c90c745) -- valid_i: 0, yumi_n: 0
On Cycle          19 (RV: 6371e058) -- valid_i: 1, yumi_n: 0
On Cycle          20 (RV: ec8b1b10) -- valid_i: 1, yumi_n: 1
On Cycle          21 (RV: ffcfde60) -- valid_i: 1, yumi_n: 0
On Cycle          22 (RV: 8db80373) -- valid_i: 0, yumi_n: 0
On Cycle          23 (RV: 936f8cfc) -- valid_i: 1, yumi_n: 1
On Cycle          24 (RV: 1351c13d) -- valid_i: 0, yumi_n: 0
On Cycle          25 (RV: 95cfa46c) -- valid_i: 1, yumi_n: 0
On Cycle          26 (RV: 40cd530e) -- valid_i: 1, yumi_n: 1
On Cycle          27 (RV: 56539ae7) -- valid_i: 0, yumi_n: 0
On Cycle          28 (RV: 403a5237) -- valid_i: 0, yumi_n: 0
On Cycle          29 (RV: 18e7ae47) -- valid_i: 0, yumi_n: 0
On Cycle          30 (RV: 3dc79340) -- valid_i: 1, yumi_n: 0
On Cycle          31 (RV: 57054833) -- valid_i: 0, yumi_n: 0
On Cycle          32 (RV: e061131c) -- valid_i: 1, yumi_n: 1
On Cycle          33 (RV: dac71ab6) -- valid_i: 1, yumi_n: 0
On Cycle          34 (RV: edc1e2d7) -- valid_i: 0, yumi_n: 0
On Cycle          35 (RV: 4174e53a) -- valid_i: 1, yumi_n: 1
On Cycle          36 (RV: ac034a67) -- valid_i: 0, yumi_n: 0
On Cycle          37 (RV: 4d45f653) -- valid_i: 0, yumi_n: 0
On Cycle          38 (RV: c10fbe84) -- valid_i: 1, yumi_n: 0
On Cycle          39 (RV: 386de8f4) -- valid_i: 1, yumi_n: 1
On Cycle          40 (RV: 5eee86e4) -- valid_i: 1, yumi_n: 0
On Cycle          41 (RV: 90647b28) -- valid_i: 1, yumi_n: 1
On Cycle          42 (RV: d2fd4367) -- valid_i: 0, yumi_n: 0
On Cycle          43 (RV: 8d3fd895) -- valid_i: 0, yumi_n: 0
On Cycle          44 (RV: a604a73c) -- valid_i: 1, yumi_n: 0
On Cycle          45 (RV: d4b91b64) -- valid_i: 1, yumi_n: 1
On Cycle          46 (RV: dedc4195) -- valid_i: 0, yumi_n: 0
On Cycle          47 (RV: 159a978a) -- valid_i: 1, yumi_n: 0
On Cycle          48 (RV: 91af473d) -- valid_i: 0, yumi_n: 0
On Cycle          49 (RV: 04c6707f) -- valid_i: 0, yumi_n: 0
On Cycle          50 (RV: 9b98395b) -- valid_i: 0, yumi_n: 0
On Cycle          51 (RV: 30eaa8dc) -- valid_i: 1, yumi_n: 1
On Cycle          52 (RV: 805acbec) -- valid_i: 1, yumi_n: 0
On Cycle          53 (RV: d74ad6c6) -- valid_i: 1, yumi_n: 1
On Cycle          54 (RV: 091f0046) -- valid_i: 1, yumi_n: 0
On Cycle          55 (RV: 1916f079) -- valid_i: 0, yumi_n: 0
On Cycle          56 (RV: ebe7d904) -- valid_i: 1, yumi_n: 1
On Cycle          57 (RV: f38048d4) -- valid_i: 1, yumi_n: 0
On Cycle          58 (RV: 7d02c934) -- valid_i: 1, yumi_n: 1
On Cycle          59 (RV: 20cd76bd) -- valid_i: 0, yumi_n: 0
On Cycle          60 (RV: b7a25b1b) -- valid_i: 0, yumi_n: 0
On Cycle          61 (RV: c2dd1302) -- valid_i: 1, yumi_n: 0
On Cycle          62 (RV: 1a7f7971) -- valid_i: 0, yumi_n: 0
On Cycle          63 (RV: 7e42ce53) -- valid_i: 0, yumi_n: 0
On Cycle          64 (RV: 8dd0b063) -- valid_i: 0, yumi_n: 0
On Cycle          65 (RV: 5b0b64de) -- valid_i: 1, yumi_n: 1
On Cycle          66 (RV: 982928f0) -- valid_i: 1, yumi_n: 0
On Cycle          67 (RV: 8ee0b004) -- valid_i: 1, yumi_n: 1
On Cycle          68 (RV: 0ae15e5f) -- valid_i: 0, yumi_n: 0
On Cycle          69 (RV: 926194f8) -- valid_i: 1, yumi_n: 0
On Cycle          70 (RV: 4e88ac23) -- valid_i: 0, yumi_n: 0
On Cycle          71 (RV: d73bab80) -- valid_i: 1, yumi_n: 1
On Cycle          72 (RV: 3a187961) -- valid_i: 0, yumi_n: 0
On Cycle          73 (RV: 2e53ff61) -- valid_i: 0, yumi_n: 0
On Cycle          74 (RV: e2e4c257) -- valid_i: 0, yumi_n: 0
On Cycle          75 (RV: 774c90d2) -- valid_i: 1, yumi_n: 0
On Cycle          76 (RV: 67f06afc) -- valid_i: 1, yumi_n: 1
On Cycle          77 (RV: 160b76bc) -- valid_i: 1, yumi_n: 0
On Cycle          78 (RV: f1d3b67b) -- valid_i: 0, yumi_n: 0
On Cycle          79 (RV: d2751b31) -- valid_i: 0, yumi_n: 0
On Cycle          80 (RV: 9bb61b7e) -- valid_i: 1, yumi_n: 1
On Cycle          81 (RV: 4f715aed) -- valid_i: 0, yumi_n: 0
On Cycle          82 (RV: be69f964) -- valid_i: 1, yumi_n: 0
On Cycle          83 (RV: 408a63d4) -- valid_i: 1, yumi_n: 1
On Cycle          84 (RV: aae955bd) -- valid_i: 0, yumi_n: 0
On Cycle          85 (RV: 165ac114) -- valid_i: 1, yumi_n: 0
On Cycle          86 (RV: ad6cd8cb) -- valid_i: 0, yumi_n: 0
On Cycle          87 (RV: 35100acb) -- valid_i: 0, yumi_n: 0
On Cycle          88 (RV: 525a32db) -- valid_i: 0, yumi_n: 0
On Cycle          89 (RV: deb733e9) -- valid_i: 0, yumi_n: 0
On Cycle          90 (RV: 1219054e) -- valid_i: 1, yumi_n: 1
On Cycle          91 (RV: fc047624) -- valid_i: 1, yumi_n: 0
On Cycle          92 (RV: 876f7742) -- valid_i: 1, yumi_n: 1
On Cycle          93 (RV: ae252c07) -- valid_i: 0, yumi_n: 0
On Cycle          94 (RV: d80a7500) -- valid_i: 1, yumi_n: 0
On Cycle          95 (RV: d5d331d6) -- valid_i: 1, yumi_n: 1
On Cycle          96 (RV: 0b9ce53f) -- valid_i: 0, yumi_n: 0
On Cycle          97 (RV: c4207d39) -- valid_i: 0, yumi_n: 0
On Cycle          98 (RV: e2aedcf9) -- valid_i: 0, yumi_n: 0
On Cycle          99 (RV: ba8684d7) -- valid_i: 0, yumi_n: 0
On Cycle         100 (RV: df37df7a) -- valid_i: 1, yumi_n: 0
On Cycle         101 (RV: 92601a76) -- valid_i: 1, yumi_n: 1
On Cycle         102 (RV: b538f67c) -- valid_i: 1, yumi_n: 0
On Cycle         103 (RV: f1557042) -- valid_i: 1, yumi_n: 1
On Cycle         104 (RV: 039f3aae) -- valid_i: 1, yumi_n: 0
On Cycle         105 (RV: 9f17e476) -- valid_i: 1, yumi_n: 1
On Cycle         106 (RV: 5b85762b) -- valid_i: 0, yumi_n: 0
On Cycle         107 (RV: 33814127) -- valid_i: 0, yumi_n: 0
On Cycle         108 (RV: 343f75d2) -- valid_i: 1, yumi_n: 0
On Cycle         109 (RV: 95bd1ea2) -- valid_i: 1, yumi_n: 1
On Cycle         110 (RV: a54a6306) -- valid_i: 1, yumi_n: 0
On Cycle         111 (RV: c0b80509) -- valid_i: 0, yumi_n: 0
On Cycle         112 (RV: 321a8a0f) -- valid_i: 0, yumi_n: 0
On Cycle         113 (RV: 524f51dc) -- valid_i: 1, yumi_n: 1
On Cycle         114 (RV: 823152e4) -- valid_i: 1, yumi_n: 0
On Cycle         115 (RV: 10866559) -- valid_i: 0, yumi_n: 0
On Cycle         116 (RV: 4bd0db79) -- valid_i: 0, yumi_n: 0
On Cycle         117 (RV: b8466aac) -- valid_i: 1, yumi_n: 1
On Cycle         118 (RV: 220c9a80) -- valid_i: 1, yumi_n: 0
On Cycle         119 (RV: 3e2345f7) -- valid_i: 0, yumi_n: 0
On Cycle         120 (RV: f34a90ea) -- valid_i: 1, yumi_n: 1
On Cycle         121 (RV: 36f7828d) -- valid_i: 0, yumi_n: 0
On Cycle         122 (RV: 663257af) -- valid_i: 0, yumi_n: 0
On Cycle         123 (RV: 4bf2f889) -- valid_i: 0, yumi_n: 0
On Cycle         124 (RV: 0f693f10) -- valid_i: 1, yumi_n: 0
On Cycle         125 (RV: 252693ca) -- valid_i: 1, yumi_n: 1
On Cycle         126 (RV: 87e359c6) -- valid_i: 1, yumi_n: 0
On Cycle         127 (RV: ed6470ab) -- valid_i: 0, yumi_n: 0
On Cycle         128 (RV: a568ea78) -- valid_i: 1, yumi_n: 1
On Cycle         129 (RV: fc8c694c) -- valid_i: 1, yumi_n: 0
On Cycle         130 (RV: cbbdc9f7) -- valid_i: 0, yumi_n: 0
On Cycle         131 (RV: 3359ea5a) -- valid_i: 1, yumi_n: 1
On Cycle         132 (RV: d589c854) -- valid_i: 1, yumi_n: 0
On Cycle         133 (RV: 3ab7fc11) -- valid_i: 0, yumi_n: 0
On Cycle         134 (RV: cf68c3c9) -- valid_i: 0, yumi_n: 0
On Cycle         135 (RV: 4df98d29) -- valid_i: 0, yumi_n: 0
On Cycle         136 (RV: 0d507e10) -- valid_i: 1, yumi_n: 1
On Cycle         137 (RV: 35fca314) -- valid_i: 1, yumi_n: 0
On Cycle         138 (RV: bb1b7971) -- valid_i: 0, yumi_n: 0
On Cycle         139 (RV: 023f162a) -- valid_i: 1, yumi_n: 1
On Cycle         140 (RV: 8da0cf31) -- valid_i: 0, yumi_n: 0
On Cycle         141 (RV: 8146a48c) -- valid_i: 1, yumi_n: 0
On Cycle         142 (RV: 464831e6) -- valid_i: 1, yumi_n: 1
On Cycle         143 (RV: cd285d82) -- valid_i: 1, yumi_n: 0
On Cycle         144 (RV: 6deaf886) -- valid_i: 1, yumi_n: 1
On Cycle         145 (RV: 46ac746e) -- valid_i: 1, yumi_n: 0
On Cycle         146 (RV: 6ce748d9) -- valid_i: 0, yumi_n: 0
On Cycle         147 (RV: 7435c96e) -- valid_i: 1, yumi_n: 1
On Cycle         148 (RV: e369578d) -- valid_i: 0, yumi_n: 0
On Cycle         149 (RV: eab580b8) -- valid_i: 1, yumi_n: 0
On Cycle         150 (RV: f5486054) -- valid_i: 1, yumi_n: 1
On Cycle         151 (RV: 0e4d848d) -- valid_i: 0, yumi_n: 0
On Cycle         152 (RV: f5dcaa69) -- valid_i: 0, yumi_n: 0
On Cycle         153 (RV: 93d5dad6) -- valid_i: 1, yumi_n: 0
On Cycle         154 (RV: 89be5e6e) -- valid_i: 1, yumi_n: 1
On Cycle         155 (RV: 74523b65) -- valid_i: 0, yumi_n: 0
On Cycle         156 (RV: e17612b2) -- valid_i: 1, yumi_n: 0
On Cycle         157 (RV: 4a869c57) -- valid_i: 0, yumi_n: 0
On Cycle         158 (RV: b9905a4e) -- valid_i: 1, yumi_n: 1
On Cycle         159 (RV: 5c94e664) -- valid_i: 1, yumi_n: 0
On Cycle         160 (RV: 1506fc99) -- valid_i: 0, yumi_n: 0
On Cycle         161 (RV: 6bdccfa9) -- valid_i: 0, yumi_n: 0
On Cycle         162 (RV: c0186540) -- valid_i: 1, yumi_n: 1
On Cycle         163 (RV: a373e743) -- valid_i: 0, yumi_n: 0
On Cycle         164 (RV: d167beaa) -- valid_i: 1, yumi_n: 0
On Cycle         165 (RV: ecea9bf6) -- valid_i: 1, yumi_n: 1
On Cycle         166 (RV: 8167c3e7) -- valid_i: 0, yumi_n: 0
On Cycle         167 (RV: ee4f1dd7) -- valid_i: 0, yumi_n: 0
On Cycle         168 (RV: 80e2bc22) -- valid_i: 1, yumi_n: 0
On Cycle         169 (RV: a8214153) -- valid_i: 0, yumi_n: 0
On Cycle         170 (RV: c284da86) -- valid_i: 1, yumi_n: 1
On Cycle         171 (RV: 8957210e) -- valid_i: 1, yumi_n: 0
On Cycle         172 (RV: eee11fe4) -- valid_i: 1, yumi_n: 1
On Cycle         173 (RV: 49be76c9) -- valid_i: 0, yumi_n: 0
On Cycle         174 (RV: eb424c40) -- valid_i: 1, yumi_n: 0
On Cycle         175 (RV: 83e41849) -- valid_i: 0, yumi_n: 0
On Cycle         176 (RV: 3e6e01f3) -- valid_i: 0, yumi_n: 0
On Cycle         177 (RV: a9867c09) -- valid_i: 0, yumi_n: 0
On Cycle         178 (RV: 762540f8) -- valid_i: 1, yumi_n: 1
On Cycle         179 (RV: 2770ee5b) -- valid_i: 0, yumi_n: 0
On Cycle         180 (RV: 90f3d996) -- valid_i: 1, yumi_n: 0
On Cycle         181 (RV: fa855610) -- valid_i: 1, yumi_n: 1
On Cycle         182 (RV: bd6c2f82) -- valid_i: 1, yumi_n: 0
On Cycle         183 (RV: d09b696d) -- valid_i: 0, yumi_n: 0
On Cycle         184 (RV: 8cff90de) -- valid_i: 1, yumi_n: 1
On Cycle         185 (RV: 9fe02c1b) -- valid_i: 0, yumi_n: 0
On Cycle         186 (RV: 648d6f80) -- valid_i: 1, yumi_n: 0
On Cycle         187 (RV: 9d84bddd) -- valid_i: 0, yumi_n: 0
On Cycle         188 (RV: 523b353b) -- valid_i: 0, yumi_n: 0
On Cycle         189 (RV: de550d7a) -- valid_i: 1, yumi_n: 1
On Cycle         190 (RV: 9488f89f) -- valid_i: 0, yumi_n: 0
On Cycle         191 (RV: c8f2ee0a) -- valid_i: 1, yumi_n: 0
On Cycle         192 (RV: 081f4fb8) -- valid_i: 1, yumi_n: 1
On Cycle         193 (RV: 2d66ee9c) -- valid_i: 1, yumi_n: 0
On Cycle         194 (RV: 73d540d3) -- valid_i: 0, yumi_n: 0
On Cycle         195 (RV: e1bcf8b4) -- valid_i: 1, yumi_n: 1
On Cycle         196 (RV: a779d049) -- valid_i: 0, yumi_n: 0
On Cycle         197 (RV: f83bc383) -- valid_i: 0, yumi_n: 0
On Cycle         198 (RV: ce3533dc) -- valid_i: 1, yumi_n: 0
On Cycle         199 (RV: 1b5718e9) -- valid_i: 0, yumi_n: 0
On Cycle         200 (RV: f4616756) -- valid_i: 1, yumi_n: 1
On Cycle         201 (RV: 61a7b71f) -- valid_i: 0, yumi_n: 0
On Cycle         202 (RV: a10dcb5f) -- valid_i: 0, yumi_n: 0
On Cycle         203 (RV: 6b059d65) -- valid_i: 0, yumi_n: 0
On Cycle         204 (RV: 8855538c) -- valid_i: 1, yumi_n: 0
On Cycle         205 (RV: 2a2ce2d8) -- valid_i: 1, yumi_n: 1
On Cycle         206 (RV: b577b3ed) -- valid_i: 0, yumi_n: 0
On Cycle         207 (RV: d9511968) -- valid_i: 1, yumi_n: 0
On Cycle         208 (RV: 9ae4c419) -- valid_i: 0, yumi_n: 0
On Cycle         209 (RV: 8d837b3c) -- valid_i: 1, yumi_n: 1
On Cycle         210 (RV: dc426cc5) -- valid_i: 0, yumi_n: 0
On Cycle         211 (RV: 473cff67) -- valid_i: 0, yumi_n: 0
On Cycle         212 (RV: f4b60223) -- valid_i: 0, yumi_n: 0
On Cycle         213 (RV: b87591bf) -- valid_i: 0, yumi_n: 0
On Cycle         214 (RV: f1931901) -- valid_i: 0, yumi_n: 0
On Cycle         215 (RV: 86491b84) -- valid_i: 1, yumi_n: 0
On Cycle         216 (RV: 6e503d43) -- valid_i: 0, yumi_n: 0
On Cycle         217 (RV: cf6b0993) -- valid_i: 0, yumi_n: 0
On Cycle         218 (RV: 226f0123) -- valid_i: 0, yumi_n: 0
On Cycle         219 (RV: 8ccfaa1b) -- valid_i: 0, yumi_n: 0
On Cycle         220 (RV: feec4747) -- valid_i: 0, yumi_n: 0
On Cycle         221 (RV: 34956ae8) -- valid_i: 1, yumi_n: 1
On Cycle         222 (RV: 4a2050a9) -- valid_i: 0, yumi_n: 0
On Cycle         223 (RV: a6cd636a) -- valid_i: 1, yumi_n: 0
On Cycle         224 (RV: 47060779) -- valid_i: 0, yumi_n: 0
On Cycle         225 (RV: 5ac7d09a) -- valid_i: 1, yumi_n: 1
On Cycle         226 (RV: 5d08ba4e) -- valid_i: 1, yumi_n: 0
On Cycle         227 (RV: 65d5e3f3) -- valid_i: 0, yumi_n: 0
On Cycle         228 (RV: 06a91e2f) -- valid_i: 0, yumi_n: 0
On Cycle         229 (RV: 027d2929) -- valid_i: 0, yumi_n: 0
On Cycle         230 (RV: 3d523df1) -- valid_i: 0, yumi_n: 0
On Cycle         231 (RV: abad2e80) -- valid_i: 1, yumi_n: 1
On Cycle         232 (RV: dda3fa66) -- valid_i: 1, yumi_n: 0
On Cycle         233 (RV: 41330ea9) -- valid_i: 0, yumi_n: 0
On Cycle         234 (RV: 8df4b391) -- valid_i: 0, yumi_n: 0
On Cycle         235 (RV: ee984861) -- valid_i: 0, yumi_n: 0
On Cycle         236 (RV: 9f83d355) -- valid_i: 0, yumi_n: 0
On Cycle         237 (RV: a511e1e2) -- valid_i: 1, yumi_n: 1
On Cycle         238 (RV: 12748c04) -- valid_i: 1, yumi_n: 0
On Cycle         239 (RV: 9117f686) -- valid_i: 1, yumi_n: 1
On Cycle         240 (RV: d10374ce) -- valid_i: 1, yumi_n: 0
On Cycle         241 (RV: a200c0e7) -- valid_i: 0, yumi_n: 0
On Cycle         242 (RV: 0bb5a8d1) -- valid_i: 0, yumi_n: 0
On Cycle         243 (RV: dd78709b) -- valid_i: 0, yumi_n: 0
On Cycle         244 (RV: aa11824c) -- valid_i: 1, yumi_n: 1
On Cycle         245 (RV: 4ccdfd7e) -- valid_i: 1, yumi_n: 0
On Cycle         246 (RV: dda8da98) -- valid_i: 1, yumi_n: 1
On Cycle         247 (RV: db40f46d) -- valid_i: 0, yumi_n: 0
On Cycle         248 (RV: 3d250a31) -- valid_i: 0, yumi_n: 0
On Cycle         249 (RV: 8c97e584) -- valid_i: 1, yumi_n: 0
On Cycle         250 (RV: 9698ae20) -- valid_i: 1, yumi_n: 1
On Cycle         251 (RV: e480b537) -- valid_i: 0, yumi_n: 0
On Cycle         252 (RV: 36c099d1) -- valid_i: 0, yumi_n: 0
On Cycle         253 (RV: 6aecb90b) -- valid_i: 0, yumi_n: 0
On Cycle         254 (RV: d7b8ebcf) -- valid_i: 0, yumi_n: 0
On Cycle         255 (RV: f3f73cd7) -- valid_i: 0, yumi_n: 0
On Cycle         256 (RV: b9e4f6ac) -- valid_i: 1, yumi_n: 0
On Cycle         257 (RV: d8feaf20) -- valid_i: 1, yumi_n: 1
On Cycle         258 (RV: 854bd34d) -- valid_i: 0, yumi_n: 0
On Cycle         259 (RV: 778e7ac8) -- valid_i: 1, yumi_n: 0
On Cycle         260 (RV: 84763ec2) -- valid_i: 1, yumi_n: 1
On Cycle         261 (RV: 3272c8dc) -- valid_i: 1, yumi_n: 0
On Cycle         262 (RV: bf7b76ab) -- valid_i: 0, yumi_n: 0
On Cycle         263 (RV: eb0942ba) -- valid_i: 1, yumi_n: 1
On Cycle         264 (RV: 3c9e33b4) -- valid_i: 1, yumi_n: 0
On Cycle         265 (RV: 92588dc6) -- valid_i: 1, yumi_n: 1
On Cycle         266 (RV: 03e1a103) -- valid_i: 0, yumi_n: 0
On Cycle         267 (RV: 86acf514) -- valid_i: 1, yumi_n: 0
On Cycle         268 (RV: 9f2242de) -- valid_i: 1, yumi_n: 1
On Cycle         269 (RV: 2801e94e) -- valid_i: 1, yumi_n: 0
On Cycle         270 (RV: 9962f2ab) -- valid_i: 0, yumi_n: 0
On Cycle         271 (RV: 34009449) -- valid_i: 0, yumi_n: 0
On Cycle         272 (RV: b8d12416) -- valid_i: 1, yumi_n: 1
On Cycle         273 (RV: c167722c) -- valid_i: 1, yumi_n: 0
On Cycle         274 (RV: ec1a6991) -- valid_i: 0, yumi_n: 0
On Cycle         275 (RV: 50b94fc5) -- valid_i: 0, yumi_n: 0
On Cycle         276 (RV: 2d066f07) -- valid_i: 0, yumi_n: 0
On Cycle         277 (RV: 6af88e98) -- valid_i: 1, yumi_n: 1
On Cycle         278 (RV: ae023116) -- valid_i: 1, yumi_n: 0
On Cycle         279 (RV: e4e2a696) -- valid_i: 1, yumi_n: 1
On Cycle         280 (RV: d1644324) -- valid_i: 1, yumi_n: 0
On Cycle         281 (RV: bf513e80) -- valid_i: 1, yumi_n: 1
On Cycle         282 (RV: 78d3c7ec) -- valid_i: 1, yumi_n: 0
On Cycle         283 (RV: 665d17fc) -- valid_i: 1, yumi_n: 1
On Cycle         284 (RV: a9a27449) -- valid_i: 0, yumi_n: 0
On Cycle         285 (RV: f13e3f72) -- valid_i: 1, yumi_n: 0
On Cycle         286 (RV: 557499c0) -- valid_i: 1, yumi_n: 1
On Cycle         287 (RV: 66dab2b4) -- valid_i: 1, yumi_n: 0
On Cycle         288 (RV: 3564d93c) -- valid_i: 1, yumi_n: 1
On Cycle         289 (RV: 66b9b315) -- valid_i: 0, yumi_n: 0
On Cycle         290 (RV: d186281f) -- valid_i: 0, yumi_n: 0
On Cycle         291 (RV: 10d7a58d) -- valid_i: 0, yumi_n: 0
On Cycle         292 (RV: 96575ac3) -- valid_i: 0, yumi_n: 0
On Cycle         293 (RV: b8d35074) -- valid_i: 1, yumi_n: 0
On Cycle         294 (RV: ee4fa844) -- valid_i: 1, yumi_n: 1
On Cycle         295 (RV: e1ff6585) -- valid_i: 0, yumi_n: 0
On Cycle         296 (RV: bd57f356) -- valid_i: 1, yumi_n: 0
On Cycle         297 (RV: f0f29bcb) -- valid_i: 0, yumi_n: 0
On Cycle         298 (RV: 7b71db91) -- valid_i: 0, yumi_n: 0
On Cycle         299 (RV: 8d426aea) -- valid_i: 1, yumi_n: 1
On Cycle         300 (RV: 3b4c9ca4) -- valid_i: 1, yumi_n: 0
On Cycle         301 (RV: 0a846dbb) -- valid_i: 0, yumi_n: 0
On Cycle         302 (RV: b7ab5197) -- valid_i: 0, yumi_n: 0
On Cycle         303 (RV: 41334005) -- valid_i: 0, yumi_n: 0
On Cycle         304 (RV: 0a8b4c41) -- valid_i: 0, yumi_n: 0
On Cycle         305 (RV: 14b30692) -- valid_i: 0, yumi_n: 0
On Cycle         306 (RV: c3302cfa) -- valid_i: 0, yumi_n: 0
On Cycle         307 (RV: 80457614) -- valid_i: 0, yumi_n: 1
On Cycle         308 (RV: 48304871) -- valid_i: 0, yumi_n: 0
On Cycle         309 (RV: f0f927e1) -- valid_i: 0, yumi_n: 0
On Cycle         310 (RV: d7123190) -- valid_i: 1, yumi_n: 0
On Cycle         311 (RV: c9c8a4dd) -- valid_i: 0, yumi_n: 0
On Cycle         312 (RV: 2cb80c5a) -- valid_i: 0, yumi_n: 0
On Cycle         313 (RV: 1be2eabc) -- valid_i: 0, yumi_n: 1
On Cycle         314 (RV: 6eb5d37f) -- valid_i: 0, yumi_n: 0
- testbench.sv:219: Verilog $finish
Simulation time is              3285000
         79 data transmitted
[0;32m    ____  ___   __________[0m
[0;32m   / __ \/   | / ___/ ___/[0m
[0;32m  / /_/ / /| | \__ \__  [0m
[0;32m / ____/ ___ |___/ /__/ / [0m
[0;32m/_/   /_/  |_/____/____/  [0m

Simulation Succeeded!
